Year,World,OECD90,Eastern Europe,Asia (Sans Japan),Middle East and Africa,Latin America,China,India,EU,USA
2012,21534.0,9127.623957628319,1943.2936850735414,6930.69990022592,1739.5084754021889,1308.6175138409528,4151.764453901066,1135.27952027904,3326.709004451875,4166.457918411576
2013,22203.0,9016.045834118777,1942.5762637489497,7335.247058742644,1835.2808486125487,1325.053512368047,4428.544206489955,1309.7515173965,3334.12218380561,4075.2017306143102
2014,22548.299,8874.327767774837,1940.7678136362488,7740.803829492828,1961.422027957443,1354.1410413266672,4610.55468126565,1500.7805323220812,3311.612973391475,3952.3196106836654
2015,22429.72186613739,8796.374017135291,1942.3844410997342,8132.075203481496,2067.1859430944533,1377.7839662288077,4854.025935109184,1648.535065341356,3322.404718908959,3874.098153296149
2016,22906.91208707252,8734.572417757896,1943.551238985945,8517.327554150039,2176.9159958870414,1404.8820648941146,5085.909127709711,1782.878685869132,3336.2689477946356,3803.4382906907267
2017,23402.11898261814,8688.567596353543,1944.338552520782,8896.966241789522,2290.813219557085,1435.3546754901552,5306.716524106361,1904.9443787597168,3353.1437549260827,3740.1283456552346
2018,23915.43469432086,8658.11693700063,1944.807290692838,9271.17860916067,2409.1643755395608,1469.1341557039202,5516.684306230929,2015.8317962220472,3373.069242528831,3684.0821640815893
2019,24446.913101321683,8643.050602452604,1945.073493417078,9639.96635309565,2532.3175358050166,1506.1447359320443,5715.893361608612,2116.572210339204,3396.037708306091,3635.166049735318
2020,24872.222746596,8666.264904650721,1945.2240100690296,9886.433018685602,2671.6820526562124,1552.6196876404636,5789.701411422844,1838.483581572053,3304.33064264643,3597.408200488825
2021,25564.910109533612,8657.969631107386,1960.6049024377396,10361.836227996126,2794.2611184401194,1589.5831603604083,6082.906857528306,2291.8214426022905,3451.18526930558,3558.3411541080877
2022,26151.947124186263,8687.104451399899,1975.8384426359867,10715.762487726348,2933.5027454075166,1635.8970508810016,6251.676172486431,2368.5637544744513,3483.507703211294,3530.3552475717847
2023,26758.21045105941,8730.206444726973,1990.9408705318986,11065.774192597919,3078.5069297377045,1685.1955927151116,6411.541124530633,2439.523688914362,3519.0131624905157,3509.191343852665
2024,27384.21569039337,8786.95291527761,2005.9312310189116,11412.570047385181,3229.4271022954094,1737.4187365668872,6563.374417450019,2505.795943089146,3557.671722357732,3494.715629885795
2025,28030.450579814868,8856.989107092479,2020.8240233183747,11756.822870495096,3386.432154913851,1792.5069442932552,6708.021329179995,2568.4727939738236,3599.4671370013957,3486.8132420747606
2026,28697.27510670919,8939.934613513564,2035.634393313982,12099.051025463457,3549.735972029154,1850.3994599137677,6846.134679012446,2628.646974633973,3644.4304364410805,3485.418460330694
2027,29385.016589681585,9035.345614906131,2050.364830733047,12439.725935184966,3719.586321033276,1911.0374981766984,6978.3190490598645,2687.4057040043463,3692.6024327812365,3490.475775665146
2028,30094.110904416437,9142.719880291628,2065.001468724681,12779.447821189016,3896.2229707262477,1974.3667583886604,7105.35296021704,2745.8289971162403,3743.9867035675425,3501.8951818321298
2029,30825.016850074087,9261.510560656174,2079.5211325350933,13118.842691962765,4079.8980228208898,2040.3353430959671,7228.0539765522235,2804.9932529428747,3798.580557462644,3519.582390219635
2030,31766.394544104933,9356.50008359278,2093.9095268308033,13643.981555116927,4281.114745628926,2119.1988790058085,7459.6420148203,3049.684149671,3888.018455190552,3528.378639592899
2031,32354.0235144262,9531.319326236428,2114.356823903299,13799.079217610008,4469.347345624434,2179.976044540166,7463.577320610249,2929.885990160214,3917.4432570540475,3573.4406346771884
2032,33152.93660242318,9681.465468224345,2134.6852692565367,14141.062221043068,4675.586045170886,2253.534172386367,7577.82605581551,2997.8116382011162,3981.7752777637415,3609.48869193249
2033,33975.33121078193,9841.129136390839,2154.9141775121566,14485.027828105009,4889.840025532876,2329.5044471930046,7690.7043133552115,3070.84882672917,4049.450398012967,3651.5637227489
2034,34821.61263220089,10009.793676777112,2175.070965051915,14831.516647365353,5112.381425849943,2407.824728598551,7802.948210957927,3150.0894127055544,4120.545936210006,3699.6435123257575
2035,35692.186026376985,10186.960813464575,2195.1815187621764,15181.074742159186,5343.475051743566,2488.4339583916167,7915.275895923437,3236.632323989453,4195.132885664511,3753.6991680612055
2036,36587.45189908002,10372.157741804062,2215.256298113114,15534.255655299257,5583.377179131653,2571.2731937417243,8028.3998943575425,3331.57496838865,4273.262593768452,3813.6836307548924
2037,37507.81544679778,10564.95004531076,2235.3080504117374,15891.629928296392,5832.322389646855,2656.2862536003668,8142.992993449551,3436.033831719398,4354.9757160065255,3879.5400604486163
2038,38453.68935931911,10764.928055425178,2255.369150813846,16253.778638733032,6090.5265005855845,2743.417844429865,8259.675758243264,3551.1544873638077,4440.322787517005,3951.2202920070454
2039,39425.48821208194,10971.707053482685,2275.4782830385943,16621.291684018535,6358.189150877561,2832.614150385445,8379.03307022877,3678.1026571100733,4529.353984535088,4028.6757387167086
2040,40296.86267838463,11208.128009695753,2295.6671173073346,16858.05866659775,6591.371150466424,2890.2868174093046,8507.689786341854,4191.565930102419,4791.383360040252,4133.57649804354
2041,41448.46696254952,11404.081150270666,2312.3855420932987,17374.703104601504,6922.743881801561,3016.975654819669,8628.18404982922,3972.1057600123895,4718.687078593065,4200.733623277385
2042,42500.41188692265,11628.832061423795,2329.207026800107,17761.69581821066,7220.11370090646,3112.0195921535296,8759.259631362185,4141.429813779578,4819.110855326545,4295.258354819194
2043,43579.782914122785,11858.710688930561,2346.1402758349577,18156.23076311172,7527.866311793367,3208.8998304794895,8895.503731144749,4327.150509397558,4923.457206341219,4395.398396877486
2044,44686.88747646597,12093.272174743166,2363.190021359413,18558.791945275956,7846.245515338692,3307.566601722655,9037.529249928519,4530.406452157279,5031.792906220386,4501.1209179622865
2045,45822.035707276744,12332.088849525528,2380.3566372172036,18969.867353201567,8175.495848656548,3407.9651513302874,9185.942223578062,4752.3433444759685,5144.1890451701,4612.397475503288
2046,46985.56201784837,12574.721004539242,2397.6459789678684,19389.979766069486,8515.85815889717,3510.032643038651,9341.372673849133,4994.114723006526,5260.705320017515,4729.190017887883
2047,48177.80776880533,12820.787148059248,2415.0513157043397,19819.652892511935,8867.574240090058,3613.6967697237137,9504.41825138277,5256.888276368185,5381.418255595163,4851.476245129343
2048,49399.08867577579,13069.993688284292,2432.5421979184143,20259.3690612291,9230.892837492835,3718.880039516217,9675.605026042409,5541.845594092052,5506.439917138484,4979.266783879881
2049,50649.71118853725,13322.098897733373,2450.0755435617216,20709.595935746354,9606.065994912502,3825.4973744417443,9855.41889691466,5850.181983519578,5635.900611449679,5112.590045458728
2050,51962.064195849314,13570.912538204879,2467.614955404647,21214.61413146304,10033.097672864644,3962.057568617377,9980.682976475833,5715.848778104648,5586.891779645164,5237.364757485152
2051,53240.21555683542,13833.799927009773,2502.1413591913033,21643.5273559064,10392.98236479226,4042.6968973613884,10243.04810409764,6541.792239710278,5908.575747799874,5395.878751752456
2052,54580.733381569284,14092.595178229822,2536.6488227284035,22128.270676804157,10805.224319535437,4153.119881667297,10452.080488937903,6927.465349390221,6051.936703597156,5545.8036034495
2053,55951.69195048111,14352.74762657403,2571.120560669493,22625.486581058954,11230.325982129849,4264.609314007409,10671.977974489868,7341.28989956332,6200.073225399125,5701.219021705649
2054,57353.19554429153,14613.755587804815,2605.540655858758,23135.60175868046,11668.542801131134,4377.0270243637015,10903.22977867386,7784.424864878837,6353.050377964963,5862.098984461306
2055,58785.39808017026,14875.123351560824,2639.8941405995974,23659.07564993243,12120.129723403687,4490.244518636987,11146.36669336583,8258.039142474636,6510.927115104605,6028.412339812962
2056,60248.54818295753,15136.416630911757,2674.169609092803,24196.403052521775,12585.344437492371,4604.152722390681,11401.929002207933,8763.343822649662,6673.7734001004865,6200.138549244387
2057,61743.000474857305,15397.200072207115,2708.355250225525,24748.15559943203,13064.440083440235,4718.668855439077,11670.580344209484,9301.567602004736,6841.640060864482,6377.239697717418
2058,63269.14672856781,15656.961395926372,2742.4360044369646,25314.9733603888,13557.661277567242,4833.72295544674,11953.14437292099,9873.91360872133,7014.536675572837,6559.639459673341
2059,64827.440647812255,15915.16229737335,2776.396573116464,25897.557240059796,14065.247947342294,4949.261596968845,12250.563419036374,10481.583125277972,7192.449136780814,6747.238919260553
2060,66418.3257104422,16171.324635965246,2810.2261262437996,26492.824489071016,14575.826105051498,5057.105991653422,12588.919183287258,11276.38058923687,7431.456862207523,6943.412624983192
