Year,World,OECD90,Eastern Europe,Asia (Sans Japan),Middle East and Africa,Latin America,China,India,EU,USA
2012,21534.0,9741.544452291633,1934.114110973214,7709.775296666008,1620.0,1546.0217396455091,5024.0,1128.0,3190.077316997973,4418.828910122117
2013,22203.0,9743.60139759519,1937.8351018782732,8158.180039891439,1663.907883173472,1570.519832699157,5374.655770355504,1179.2925501446043,3203.1405153393716,4397.94677514345
2014,22548.299,9675.972066868373,1943.502430745102,8532.827383621017,1722.1643566112161,1598.9818339383082,5558.549967260861,1260.6784700648452,3184.9535279023635,4334.749055742242
2015,24063.57105066699,9677.091924007707,1958.2820019737985,8904.46667757342,1765.3713082999823,1620.5033371431036,5820.3518876459975,1324.6991748186185,3195.953930355642,4325.158658804735
2016,24558.707548275306,9694.845889531687,1977.9991672316717,9281.478038639183,1815.5136565480736,1645.5918591483469,6071.138245044899,1396.9116301535355,3206.9934948989453,4328.285287845295
2017,25090.37395508468,9728.116047508902,2002.4506049211082,9663.48710185345,1872.637110857326,1674.0880748523898,6311.290391015407,1477.0027392746474,3218.049801518544,4343.232549123472
2018,25656.490225276146,9775.83481546503,2031.3992198672368,10049.94488093597,1936.8274696516817,1705.8451007453505,6541.038887806657,1564.6319309031933,3229.128099215797,4369.144341112024
2019,26254.83878744325,9836.977452578207,2064.6745814671212,10440.115137691791,2008.1845568003423,1740.6969374110101,6760.501978629913,1659.392574408761,3240.222820120261,4405.1525720459285
2020,27438.193330373855,10047.752237548053,2111.9098355829865,11137.668424171223,2153.4458195396974,1812.7897968599254,7159.786767965686,1776.4763238638602,3251.327156883028,4503.2953626037615
2021,27539.936800689666,9995.277680566775,2143.2933369180964,11229.183027724326,2172.73273903743,1819.0911440050038,7169.322120004801,1868.813105227966,3249.572230484034,4504.02200362891
2022,28223.012329556896,10090.177061291928,2187.9785828537383,11627.413706910766,2266.0384582184643,1862.396043325555,7359.349847283735,1982.892125803055,3247.857745988008,4565.19795272764
2023,28930.760745825857,10194.183625521908,2235.817257407671,12027.813901716103,2366.726918307285,1908.283293077217,7540.269875124714,2102.8644468557795,3246.1433917195286,4633.010100461004
2024,29661.490183062142,10306.31308612747,2286.4898950677766,12430.262756195612,2474.7893303193327,1956.637736531542,7712.467864403151,2228.4924784258997,3244.3746711453455,4706.528778721706
2025,30231.802511977854,10363.320779014597,2339.2469396416664,12766.749568109386,2542.4113934042743,2005.836325223451,7827.29181225646,2365.3957872192677,3242.515498660722,4759.402602918293
2026,31184.92924947685,10550.812313076513,2395.0763291242456,13240.578305295156,2713.0782448975247,2060.274834318644,8032.184758888212,2495.7003776503975,3240.556867655977,4867.099282066535
2027,31973.977293799846,10680.972163402681,2452.3796172101174,13647.828917541587,2843.398168133732,2115.309008169718,8180.3812039729655,2636.6934467142723,3238.5176443418086,4952.45814878281
2028,32778.84703266893,10814.875889457195,2511.2669148597893,14056.092806410183,2981.241346559981,2172.329858149747,8321.289564337496,2782.2066656014317,3236.424641263193,5040.1153547926015
2029,33597.76639494975,10951.341062556028,2571.412556859522,14465.099851777708,3126.670523034775,2231.224524834507,8455.296723483638,2931.9238934761343,3234.3163391604617,5129.285188160114
2030,33932.895586086204,10991.02396506082,2619.8881876237824,14559.451751366116,3255.194517077732,2248.2317315094865,8397.05292998259,3056.603385476164,3793.5174231605856,5183.396286820487
2031,35270.633506716105,11227.317704312907,2694.204634559867,15284.266555758057,3440.5139246951226,2354.1731720112284,8704.123321049592,3242.7224935928602,3322.8827031439837,5308.951268767343
2032,36120.99229884999,11364.59171615239,2756.23781654197,15693.892190464667,3609.016827198557,2417.9866495358083,8819.668042134015,3403.206507269826,3336.209199218485,5397.7786357303885
2033,36978.27564860202,11499.844177275969,2818.3165443042776,16103.174502126556,3785.3278696491957,2483.1926317752004,8929.838919860698,3566.6540634262906,3349.555567360159,5484.862326323179
2034,37840.732912387415,11631.887112815462,2880.1761927272514,16511.825216668873,3969.5301506922156,2549.6619128570323,9035.069354274654,3732.727281120989,3362.9491762764524,5569.418416494442
2035,38706.599915188504,11759.54671934912,2941.5485356468334,16919.55977687814,4161.700070889006,2617.266962148428,9135.771862393176,3901.0943111846677,3376.4076746562832,5650.650483576763
2036,39574.06622250912,11881.676197901214,3002.1422065923157,17326.081066550323,4361.901688457751,2685.884943540062,9232.320133074078,4071.4264192777496,3389.9414352317995,5727.752482446
2037,40441.31409191117,11997.154262576658,3061.6619158936796,17731.114179931974,4570.181407474712,2755.396428370934,9325.052940590927,4243.420311042698,3403.541441624748,5799.887141964294
2038,41306.560107128564,12104.865543373871,3119.834421168238,18134.423274260775,4786.576423525529,2825.6814901816083,9414.301830035762,4416.802643781386,3417.1811838793524,5866.187620827428
2039,42168.02352237615,12203.707308654646,3176.3921346745387,18535.791840297246,5011.112476234566,2896.6213785245995,9500.379778689789,4591.32363414875,3430.822416767575,5925.766514076348
2040,43397.117453255945,12373.458669044772,3239.31217321701,19158.422258369166,5273.674936878203,2996.5483076660316,9716.858839394521,4783.752816849509,3605.988190309983,6007.9389512317475
2041,43872.33598450657,12370.365313580573,3283.5505053124266,19331.692696864324,5484.742144329313,3039.986209905262,9664.263069988034,4942.714756598,3635.6330471537703,6021.316128627434
2042,44711.455364784575,12435.962312424319,3333.5621320960263,19725.602268500297,5733.934563061416,3112.1668752432743,9742.692998315139,5118.982335919779,3665.232806031916,6055.648400386128
2043,45539.30913250783,12488.2224630451,3380.795798334538,20116.350276890233,5991.440009258717,3184.5219581812403,9819.215378651566,5295.202127724988,3694.7741779394214,6079.9102773922505
2044,46353.91149812316,12525.993846294392,3424.945330209093,20503.5500033706,6257.302347721257,3256.9361461624435,9894.160740081297,5471.033906406112,3724.243090313453,6093.26481029366
2045,47153.277824682584,12548.150402120526,3465.6984969732844,20886.810118608388,6531.566911912004,3329.2916278907387,9967.835278634157,5646.142479584911,3753.632151355303,6094.888782117277
2046,47935.45554578734,12553.57988982789,3502.747282329252,21265.766807398588,6814.277721450721,3401.468357505476,10040.529865430884,5820.201781942515,3782.9368602221457,6083.966568358481
2047,48698.5008242514,12541.226577644247,3535.7680981305416,21640.0458394117,7105.484082528799,3473.3410272694473,10112.484666473625,5992.905802574251,3812.166780497009,6059.707921612966
2048,49440.43399641057,12510.092358789694,3564.408256598026,22009.218699964058,7405.244580318313,3544.7797229046587,10183.884039503071,6163.960884334491,3841.3476099087256,6021.349878535519
2049,50159.2641842048,12459.213282647423,3588.298743649246,22372.831878597677,7713.623561534567,3615.6506218063682,10254.872207902637,6333.085063923657,3870.515051779291,5968.144978974774
2050,50758.24013789361,12366.921868758252,3605.0318955225416,22674.16743107327,8022.6299381372455,3678.8200494677003,10292.118844161927,6495.849889847501,3783.7131173084667,5891.603731651742
2051,51519.654377287916,12294.174531680143,3620.399761289107,23081.62998848866,8356.480676557816,3755.1630486679505,10396.34603430646,6664.345459195207,3801.395672811752,5814.130998200821
2052,52157.250655187025,12177.855329602044,3627.9369348449954,23426.00780155025,8691.066610752854,3823.550944001351,10467.332728679685,6825.829171949599,3819.1214596741847,5711.735680895531
2053,52763.64377375398,12037.537743328523,3629.3374235663355,23763.043303487695,9034.4880918104,3890.8567311292395,10538.662185694791,6984.06859127287,3836.906417482991,5591.367031644495
2054,53336.64766378499,11872.10831288994,3624.2496722360956,24092.174220467292,9386.788357001362,3956.952340700223,10610.38344257193,7138.675672410699,3854.767062736286,5452.241352098787
2055,53874.140892573785,11680.458087629044,3612.326691272276,24412.885262583328,9748.014111791274,4021.7093514424737,10682.608379320545,7289.269906215505,3872.716562603324,5293.566726972737
2056,54374.11998760768,11461.501660062715,3593.2337529717497,24724.738603279824,10118.221032889947,4084.999178025685,10755.537933724569,7435.503102389417,3890.76606478941,5114.544739165614
2057,54834.68257094144,11214.151446629001,3566.6392502449853,25027.385315687745,10497.470160443036,4146.692387728927,10829.494308184914,7577.039248773365,3908.9200146271905,4914.364375334104
2058,55253.94321039043,10937.292984928361,3532.2065270243897,25320.51601331955,10885.820523487346,4206.658643682195,10904.869774051085,7713.521213585573,3927.1759244147725,4692.203127505363
2059,55630.06655961239,10629.805090775004,3489.6007056439325,25603.874923401145,11283.333326722171,4264.767088328939,10982.133030871884,7844.5909976209,3945.526714106341,4447.231587338493
2060,55961.22082839272,10290.573251564307,3438.4960737893816,25877.2016827776,11690.072388645849,4320.887319179151,11061.734514669035,7969.896169814508,3963.9678108727876,4178.62258225976
